ADJ_LIMIT = 0.128 
MAXDISP = 16 
MINDISP = 0.005 
MAXDIST = 1
MAXSTRAT = 16 
NTP_PORT = 123 
PHI = 15e-6 
PLL_TIME_CONSTANT = 0
POLL_MAX = 17
POLL_MIN = 4
RECV_TIMEOUT = 2 
SYSTEM_PRECISION = -18 
BCOUNT = 8
BTIME = 2
